{
  "page": 1,
  "total_results": 72588,
  "total_pages": 3630,
  "results": [
    {
      "vote_count": 4804,
      "id": 346364,
      "video": false,
      "vote_average": 7.2,
      "title": "It",
      "popularity": 851.149606,
      "poster_path": "/9E2y5Q7WlCVNEhP5GiVTjhEhx1o.jpg",
      "original_language": "en",
      "original_title": "It",
      "genre_ids": [18, 14, 27, 53],
      "backdrop_path": "/tcheoA2nPATCm2vvXw2hVQoaEFD.jpg",
      "adult": false,
      "overview":
        "In a small town in Maine, seven children known as The Losers Club come face to face with life problems, bullies and a monster that takes the shape of a clown called Pennywise.",
      "release_date": "2017-09-05"
    },
    {
      "vote_count": 1630,
      "id": 181808,
      "video": false,
      "vote_average": 7.4,
      "title": "Star Wars: The Last Jedi",
      "popularity": 765.561888,
      "poster_path": "/xGWVjewoXnJhvxKW619cMzppJDQ.jpg",
      "original_language": "en",
      "original_title": "Star Wars: The Last Jedi",
      "genre_ids": [28, 12, 14, 878],
      "backdrop_path": "/5Iw7zQTHVRBOYpA0V6z0yypOPZh.jpg",
      "adult": false,
      "overview":
        "Rey develops her newly discovered abilities with the guidance of Luke Skywalker, who is unsettled by the strength of her powers. Meanwhile, the Resistance prepares to do battle with the First Order.",
      "release_date": "2017-12-13"
    },
    {
      "vote_count": 639,
      "id": 354912,
      "video": false,
      "vote_average": 7.3,
      "title": "Coco",
      "popularity": 674.760944,
      "poster_path": "/eKi8dIrr8voobbaGzDpe8w0PVbC.jpg",
      "original_language": "en",
      "original_title": "Coco",
      "genre_ids": [12, 16, 10751],
      "backdrop_path": "/askg3SMvhqEl4OL52YuvdtY40Yb.jpg",
      "adult": false,
      "overview":
        "Despite his family’s baffling generations-old ban on music, Miguel dreams of becoming an accomplished musician like his idol, Ernesto de la Cruz. Desperate to prove his talent, Miguel finds himself in the stunning and colorful Land of the Dead following a mysterious chain of events. Along the way, he meets charming trickster Hector, and together, they set off on an extraordinary journey to unlock the real story behind Miguel's family history.",
      "release_date": "2017-10-27"
    },
    {
      "vote_count": 2007,
      "id": 141052,
      "video": false,
      "vote_average": 6.6,
      "title": "Justice League",
      "popularity": 563.216966,
      "poster_path": "/9rtrRGeRnL0JKtu9IMBWsmlmmZz.jpg",
      "original_language": "en",
      "original_title": "Justice League",
      "genre_ids": [28, 12, 14, 878],
      "backdrop_path": "/o5T8rZxoWSBMYwjsUFUqTt6uMQB.jpg",
      "adult": false,
      "overview":
        "Fueled by his restored faith in humanity and inspired by Superman's selfless act, Bruce Wayne and Diana Prince assemble a team of metahumans consisting of Barry Allen, Arthur Curry, and Victor Stone to face the catastrophic threat of Steppenwolf and the Parademons who are on the hunt for three Mother Boxes on Earth.",
      "release_date": "2017-11-15"
    },
    {
      "vote_count": 5237,
      "id": 211672,
      "video": false,
      "vote_average": 6.4,
      "title": "Minions",
      "popularity": 388.160795,
      "poster_path": "/q0R4crx2SehcEEQEkYObktdeFy.jpg",
      "original_language": "en",
      "original_title": "Minions",
      "genre_ids": [10751, 16, 12, 35],
      "backdrop_path": "/qLmdjn2fv0FV2Mh4NBzMArdA0Uu.jpg",
      "adult": false,
      "overview":
        "Minions Stuart, Kevin and Bob are recruited by Scarlet Overkill, a super-villain who, alongside her inventor husband Herb, hatches a plot to take over the world.",
      "release_date": "2015-06-17"
    },
    {
      "vote_count": 2992,
      "id": 8844,
      "video": false,
      "vote_average": 6.9,
      "title": "Jumanji",
      "popularity": 382.446939,
      "poster_path": "/8wBKXZNod4frLZjAKSDuAcQ2dEU.jpg",
      "original_language": "en",
      "original_title": "Jumanji",
      "genre_ids": [12, 14, 10751],
      "backdrop_path": "/52lVqTDhIeNTjT7EiJuovXgw6iE.jpg",
      "adult": false,
      "overview":
        "When siblings Judy and Peter discover an enchanted board game that opens the door to a magical world, they unwittingly invite Alan -- an adult who's been trapped inside the game for 26 years -- into their living room. Alan's only hope for freedom is to finish the game, which proves risky as all three find themselves running from giant rhinoceroses, evil monkeys and other terrifying creatures.",
      "release_date": "1995-12-15"
    },
    {
      "vote_count": 6318,
      "id": 321612,
      "video": false,
      "vote_average": 6.8,
      "title": "Beauty and the Beast",
      "popularity": 342.187166,
      "poster_path": "/tWqifoYuwLETmmasnGHO7xBjEtt.jpg",
      "original_language": "en",
      "original_title": "Beauty and the Beast",
      "genre_ids": [10751, 14, 10749],
      "backdrop_path": "/6aUWe0GSl69wMTSWWexsorMIvwU.jpg",
      "adult": false,
      "overview":
        "A live-action adaptation of Disney's version of the classic tale of a cursed prince and a beautiful young woman who helps him break the spell.",
      "release_date": "2017-03-16"
    },
    {
      "vote_count": 118,
      "id": 460793,
      "video": false,
      "vote_average": 6.6,
      "title": "Olaf's Frozen Adventure",
      "popularity": 298.410483,
      "poster_path": "/47pLZ1gr63WaciDfHCpmoiXJlVr.jpg",
      "original_language": "en",
      "original_title": "Olaf's Frozen Adventure",
      "genre_ids": [12, 16, 35, 10751, 14, 10402],
      "backdrop_path": "/woCxv9kua5uqtRNaiWUBDzrgZnH.jpg",
      "adult": false,
      "overview":
        "Olaf is on a mission to harness the best holiday traditions for Anna, Elsa, and Kristoff.",
      "release_date": "2017-10-27"
    },
    {
      "vote_count": 6949,
      "id": 177572,
      "video": false,
      "vote_average": 7.7,
      "title": "Big Hero 6",
      "popularity": 288.663419,
      "poster_path": "/9gLu47Zw5ertuFTZaxXOvNfy78T.jpg",
      "original_language": "en",
      "original_title": "Big Hero 6",
      "genre_ids": [12, 10751, 16, 28, 35],
      "backdrop_path": "/2BXd0t9JdVqCp9sKf6kzMkr7QjB.jpg",
      "adult": false,
      "overview":
        "The special bond that develops between plus-sized inflatable robot Baymax, and prodigy Hiro Hamada, who team up with a group of friends to form a band of high-tech heroes.",
      "release_date": "2014-10-24"
    },
    {
      "vote_count": 98,
      "id": 371638,
      "video": false,
      "vote_average": 7.5,
      "title": "The Disaster Artist",
      "popularity": 288.225802,
      "poster_path": "/uCH6FOFsDW6pfvbbmIIswuvuNtM.jpg",
      "original_language": "en",
      "original_title": "The Disaster Artist",
      "genre_ids": [18, 35, 36],
      "backdrop_path": "/bAI7aPHQcvSZXvt7L11kMJdS0Gm.jpg",
      "adult": false,
      "overview":
        "An aspiring actor in Hollywood meets an enigmatic stranger by the name of Tommy Wiseau, the meeting leads the actor down a path nobody could have predicted; creating the worst movie ever made.",
      "release_date": "2017-12-01"
    },
    {
      "vote_count": 6195,
      "id": 245891,
      "video": false,
      "vote_average": 7,
      "title": "John Wick",
      "popularity": 266.102517,
      "poster_path": "/5vHssUeVe25bMrof1HyaPyWgaP.jpg",
      "original_language": "en",
      "original_title": "John Wick",
      "genre_ids": [28, 53],
      "backdrop_path": "/umC04Cozevu8nn3JTDJ1pc7PVTn.jpg",
      "adult": false,
      "overview":
        "Ex-hitman John Wick comes out of retirement to track down the gangsters that took everything from him.",
      "release_date": "2014-10-22"
    },
    {
      "vote_count": 268,
      "id": 406997,
      "video": false,
      "vote_average": 7.7,
      "title": "Wonder",
      "popularity": 264.052769,
      "poster_path": "/ouYgAatYH4JzIThj6FI3UYf31RI.jpg",
      "original_language": "en",
      "original_title": "Wonder",
      "genre_ids": [18],
      "backdrop_path": "/f1Jv532UM9j6zrV2XVkHL7HyyIW.jpg",
      "adult": false,
      "overview":
        "Based on the New York Times bestseller, Wonder tells the inspiring and heartwarming story of August Pullman. Born with facial differences that, up until now, have prevented him from going to a mainstream school, Auggie becomes the most unlikely of heroes when he enters the local fifth grade. As his family, his new classmates, and the larger community all struggle to find their compassion and acceptance, Auggie's extraordinary journey will unite them all and prove you can't blend in when you were born to stand out.",
      "release_date": "2017-11-13"
    },
    {
      "vote_count": 3622,
      "id": 374720,
      "video": false,
      "vote_average": 7.5,
      "title": "Dunkirk",
      "popularity": 215.198106,
      "poster_path": "/bOXBV303Fgkzn2K4FeKDc0O31q4.jpg",
      "original_language": "en",
      "original_title": "Dunkirk",
      "genre_ids": [28, 18, 36, 53, 10752],
      "backdrop_path": "/4yjJNAgXBmzxpS6sogj4ftwd270.jpg",
      "adult": false,
      "overview":
        "The story of the miraculous evacuation of Allied soldiers from Belgium, Britain, Canada and France, who were cut off and surrounded by the German army from the beaches and harbour of Dunkirk between May 26th and June 4th 1940 during World War II.",
      "release_date": "2017-07-19"
    },
    {
      "vote_count": 76,
      "id": 399055,
      "video": false,
      "vote_average": 6.5,
      "title": "The Shape of Water",
      "popularity": 212.81627,
      "poster_path": "/iLYLADGA5oKGM92Ns1j9CDgk3iI.jpg",
      "original_language": "en",
      "original_title": "The Shape of Water",
      "genre_ids": [18, 14, 10749],
      "backdrop_path": "/6rhXCI4I6FRTWMka7hz39dQCiL7.jpg",
      "adult": false,
      "overview":
        "An other-worldly story, set against the backdrop of Cold War era America circa 1962, where a mute janitor working at a lab falls in love with an amphibious man being held captive there and devises a plan to help him escape.",
      "release_date": "2017-12-01"
    },
    {
      "vote_count": 1834,
      "id": 343668,
      "video": false,
      "vote_average": 7.1,
      "title": "Kingsman: The Golden Circle",
      "popularity": 202.278097,
      "poster_path": "/34xBL6BXNYFqtHO9zhcgoakS4aP.jpg",
      "original_language": "en",
      "original_title": "Kingsman: The Golden Circle",
      "genre_ids": [28, 12, 35],
      "backdrop_path": "/uExPmkOHJySrbJyJDJylHDqaT58.jpg",
      "adult": false,
      "overview":
        "When an attack on the Kingsman headquarters takes place and a new villain rises, Eggsy and Merlin are forced to work together with the American agency known as the Statesman to save the world.",
      "release_date": "2017-09-20"
    },
    {
      "vote_count": 2725,
      "id": 284053,
      "video": false,
      "vote_average": 7.4,
      "title": "Thor: Ragnarok",
      "popularity": 199.484191,
      "poster_path": "/oSLd5GYGsiGgzDPKTwQh7wamO8t.jpg",
      "original_language": "en",
      "original_title": "Thor: Ragnarok",
      "genre_ids": [28, 12, 35, 14, 878],
      "backdrop_path": "/5wNUJs23rT5rTBacNyf5h83AynM.jpg",
      "adult": false,
      "overview":
        "Thor is imprisoned on the other side of the universe and finds himself in a race against time to get back to Asgard to stop Ragnarok, the prophecy of destruction to his homeworld and the end of Asgardian civilization, at the hands of an all-powerful new threat, the ruthless Hela.",
      "release_date": "2017-10-25"
    },
    {
      "vote_count": 48,
      "id": 316029,
      "video": false,
      "vote_average": 7.5,
      "title": "The Greatest Showman",
      "popularity": 195.292118,
      "poster_path": "/dfhztJRiElqmYW4kpvjYe1gENsD.jpg",
      "original_language": "en",
      "original_title": "The Greatest Showman",
      "genre_ids": [18, 10402],
      "backdrop_path": "/zpq404Sk7qQ7N4x3xOeNgp74GtU.jpg",
      "adult": false,
      "overview":
        "The story of American showman P.T. Barnum, founder of the circus that became the famous traveling Ringling Bros. and Barnum & Bailey Circus.",
      "release_date": "2017-12-20"
    },
    {
      "vote_count": 5319,
      "id": 315635,
      "video": false,
      "vote_average": 7.3,
      "title": "Spider-Man: Homecoming",
      "popularity": 186.456058,
      "poster_path": "/ApYhuwBWzl29Oxe9JJsgL7qILbD.jpg",
      "original_language": "en",
      "original_title": "Spider-Man: Homecoming",
      "genre_ids": [28, 12, 35, 878],
      "backdrop_path": "/vc8bCGjdVp0UbMNLzHnHSLRbBWQ.jpg",
      "adult": false,
      "overview":
        "Following the events of Captain America: Civil War, Peter Parker, with the help of his mentor Tony Stark, tries to balance his life as an ordinary high school student in Queens, New York City, with fighting crime as his superhero alter ego Spider-Man as a new threat, the Vulture, emerges.",
      "release_date": "2017-07-05"
    },
    {
      "vote_count": 12636,
      "id": 293660,
      "video": false,
      "vote_average": 7.4,
      "title": "Deadpool",
      "popularity": 130.863636,
      "poster_path": "/inVq3FRqcYIRl2la8iZikYYxFNR.jpg",
      "original_language": "en",
      "original_title": "Deadpool",
      "genre_ids": [28, 12, 35],
      "backdrop_path": "/n1y094tVDFATSzkTnFxoGZ1qNsG.jpg",
      "adult": false,
      "overview":
        "Deadpool tells the origin story of former Special Forces operative turned mercenary Wade Wilson, who after being subjected to a rogue experiment that leaves him with accelerated healing powers, adopts the alter ego Deadpool. Armed with his new abilities and a dark, twisted sense of humor, Deadpool hunts down the man who nearly destroyed his life.",
      "release_date": "2016-02-09"
    },
    {
      "vote_count": 4216,
      "id": 337339,
      "video": false,
      "vote_average": 6.8,
      "title": "The Fate of the Furious",
      "popularity": 127.631776,
      "poster_path": "/dImWM7GJqryWJO9LHa3XQ8DD5NH.jpg",
      "original_language": "en",
      "original_title": "The Fate of the Furious",
      "genre_ids": [12, 28, 80, 53],
      "backdrop_path": "/jzdnhRhG0dsuYorwvSqPqqnM1cV.jpg",
      "adult": false,
      "overview":
        "When a mysterious woman seduces Dom into the world of crime and a betrayal of those closest to him, the crew face trials that will test them as never before.",
      "release_date": "2017-04-12"
    }
  ]
}
